[gd_scene load_steps=5 format=2]

[ext_resource path="res://bala.gd" type="Script" id=1]
[ext_resource path="res://estelada.jpeg" type="Texture" id=2]

[sub_resource type="SpriteFrames" id=1]

animations = [ {
"frames": [ ExtResource( 2 ) ],
"loop": true,
"name": "default",
"speed": 5.0
} ]

[sub_resource type="RectangleShape2D" id=2]

custom_solver_bias = 0.0
extents = Vector2( 37.9963, 21.4153 )

[node name="bala" type="Area2D"]

position = Vector2( 39.3894, 3.88346 )
input_pickable = true
gravity_vec = Vector2( 0, 1 )
gravity = 98.0
linear_damp = 0.1
angular_damp = 1.0
audio_bus_override = false
audio_bus_name = "Master"
script = ExtResource( 1 )
__meta__ = {
"_edit_group_": true
}

[node name="AnimatedSprite" type="AnimatedSprite" parent="." index="0"]

frames = SubResource( 1 )
animation = "default"

[node name="VisibilityNotifier2D" type="VisibilityNotifier2D" parent="." index="1"]

rect = Rect2( -10, -10, 20, 20 )

[node name="CollisionShape2D" type="CollisionShape2D" parent="." index="2"]

position = Vector2( 1.10956, 0.834176 )
shape = SubResource( 2 )

[connection signal="body_entered" from="." to="." method="_on_bala_body_entered"]


